state={
	id=158
	name="STATE_158"
	provinces={
		229 554 973 1438 1634 1656 1809 1940 1990 2206 2219 2464 2507 2630 2816 2999 3252 3297 3368 4345 4348 4350 4373 4376 4380 4389 4390 4397 
	}
	manpower=1
	buildings_max_level_factor=1.000
}
