state={
	id=186
	name="STATE_186"
	provinces={
		271 302 1165 1594 1953 2268 2351 2502 2533 2909 3046 3314 3540 4481 4497 4502 4505 4512 4529 4567 4576 4581 4592 4601 
	}
	manpower=1
	buildings_max_level_factor=1.000
}
