state={
	id=332
	name="STATE_332"
	provinces={
		653 754 858 910 1210 1218 1243 1352 1635 2037 2181 2190 2261 2504 2599 2764 2980 2988 3355 4790 4793 4794 
	}
	manpower=1
	buildings_max_level_factor=1.000
}
