state={
	id=39
	name="STATE_39"
	provinces={
		27 120 486 515 750 753 816 838 927 1221 1364 1426 1534 1757 1970 2452 2537 2695 2756 2983 3115 3749 3757 3759 3764 3767 3780 3785 
	}
	manpower=1
	buildings_max_level_factor=1.000
}
