state={
	id=406
	name="STATE_406"
	provinces={
		121 150 287 525 1081 1128 1336 1366 1398 1399 1550 1695 1715 2086 2163 2377 2429 2709 2915 4826 4827 
	}
	manpower=1
	buildings_max_level_factor=1.000
}
