state={
	id=50
	name="STATE_50"
	provinces={
		58 272 277 348 418 485 669 731 984 1300 1744 1923 2101 2114 2125 2292 2367 2472 2493 3543 3569 3646 3776 3812 
	}
	manpower=1
	buildings_max_level_factor=1.000
}
