state={
	id=52
	name="STATE_52"
	provinces={
		563 596 626 666 696 751 811 837 1192 1236 1631 1746 2299 2364 2655 2705 3119 3179 3198 3310 3378 3422 3592 3596 3772 3792 3795 3796 3798 3809 3810 3822 
	}
	manpower=1
	buildings_max_level_factor=1.000
}
