state={
	id=66
	name="STATE_66"
	provinces={
		7 12 22 86 122 144 184 209 216 221 242 256 268 344 345 346 421 467 472 499 565 670 694 741 752 769 772 815 825 875 890 900 928 952 994 1007 1012 1015 1021 1027 1046 1059 1062 1068 1105 1149 1167 1172 1174 1179 1214 1242 1256 1267 1279 1280 1281 1293 1295 1301 1348 1355 1382 1384 1415 1429 1455 1497 1514 1530 1569 1600 1628 1675 1676 1684 1702 1706 1714 1725 1751 1753 1754 1785 1792 1805 1806 1831 1846 1868 1883 1890 1942 1982 1996 2000 2011 2035 2071 2100 2189 2202 2253 2282 2303 2321 2325 2329 2330 2363 2370 2380 2382 2409 2449 2460 2470 2510 2528 2577 2609 2628 2629 2652 2667 2701 2717 2722 2746 2758 2774 2805 2807 2879 2897 2903 2931 2937 2949 2952 3000 3013 3030 3125 3132 3142 3171 3232 3268 3269 3287 3293 3295 3353 3361 3395 3469 3479 3516 3570 3578 3584 3598 3618 3647 3828 3841 3844 3845 3851 3852 3856 3858 3860 3861 3862 3869 3871 3878 3879 3887 3890 3892 3895 3899 3900 3902 3905 3907 3908 3916 3917 3919 3924 3925 3931 3937 3938 3940 3942 3946 3949 3953 3960 3962 3965 3972 3975 3979 3983 3988 3993 4000 4004 
	}
	manpower=1
	buildings_max_level_factor=1.000
}
