state={
	id=69
	name="STATE_69"
	provinces={
		142 279 369 425 446 468 488 504 641 691 746 892 930 966 1038 1058 1168 1198 1261 1297 1345 1433 1489 1515 1826 1843 1863 1910 2007 2056 2111 2224 2231 2446 2457 2615 2676 2765 2787 2819 2850 2857 2874 2904 2957 2962 3012 3082 3083 3116 3117 3210 3212 3237 3307 3348 3366 3477 3523 3548 3840 3850 3865 3888 3906 3910 3912 3921 3926 3928 3930 3939 3941 3964 3984 
	}
	manpower=1
	buildings_max_level_factor=1.000
}
